    1  echo Hello Git > f3.txt
    2  git config -l
    3  mkdir ~/.ssh
    4  cd ~/.ssh
    5  ssh-keygen -t rsa -C "3540083762@qq.com"
    6  ls
    7  cat id_rsa.pub 
    8  ssh -T git@gitlab.com
    9  git config --global user.name "zhang xiao"
   10  git config --global user.email "3540083762@qq.com"
   11  git clone git@gitlab.com:zhang xiao/zxhyi_test.git
   12  git clone git@gitlab.com:zhangxiaohuayi/zxhyi_test.git
   13  cd test
   14  touch README.md
   15  git add README.md
   16  git remote -v
   17  git branch
   18  git branch -r
   19  git branch yiqxyy
   20  git clone git://gitlab.com/zhangxiaohuayi/zxhyi_test.git
   21  git remote -v
   22  git clone git://gitlab.com/zhangxiaohuayi/zxyiqx_test.git
   23  git clone git://gitlab.com/zhangxiaohuayi/zxhyi_test.git
   24  git config --global user.name "zhangxiaohuayi"
   25  git config --global user.email "3540083762@qq.com"
   26  git clone https://gitlab.com/zhangxiaohuayi/zxhyi_test
   27  pwd
   28  cd /c/Users/Administrator
   29  cd c
   30  cd c:
   31  cd /Users/Administrator
   32  cd Users
   33  cd /Administrator
   34  cd Administrator
   35  cd d
   36  cd d:
   37  cd local_git
   38  git clone https://gitlab.com/zhangxiaohuayi/zxhyi_test
   39  git branch yiqxyy
   40  cd zxhyi_test
   41  git branch yiqxyy
   42  git checkout yiqxyy
   43  git branch
   44  git push origin yiqxyy
   45  git branch yyqxi
   46  git push origin yyqxi
   47  git branch qxi
   48  git push origin qxi
   49  history
   50  touch mylog.txt
   51  history > mylog.txt
   52  cat mylog.txt
   53  git push origin mylog.txt
   54  cat mylog.txt
   55  git add mylog.txt
   56  touch README.md
   57  git add  README.md
   58  ls
   59  git commit
   60  git add .
   61  git add mylog.txt
   62  git commit -m "history of operations"
   63  git push
   64  git push origin main
   65  git status
   66  touch log.txt
   67  history
   68  git status
   69  history > log.txt
   70  git diff log.txt
   71  git diff log
   72  git add log.txt
   73  cat log.txt
   74  git add log.txt
   75  gir status
   76  git status
   77  git commit -m "this is history copy file"
   78  git push origin yiqxyy
   79  git push origin main
   80  ls
   81  touch README.md
   82  vi README.md
   83  git add README.md
   84  git add README.md
   85  git commit -m "maybe branch yiqxyy could find log"
   86  git push origin main
   87  cd main
   88  git checkout main
   89  git status
   90  touch README.md
   91  vi README.md
   92  git add README.md
   93  git commit -m "maybe some nonsense"
   94  git push origin main
   95  git branch -r
   96  touch mylog.txt
   97  history > mylog.txt
